<?xml version="1.0" encoding="utf-8"?>
<!-- Generator: Adobe Illustrator 19.1.0, SVG Export Plug-In . SVG Version: 6.00 Build 0)  -->
<svg version="1.1" id="Layer_1" xmlns="http://www.w3.org/2000/svg" xmlns:xlink="http://www.w3.org/1999/xlink" x="0px" y="0px"
	 viewBox="0 0 437.4 138" enable-background="new 0 0 437.4 138" xml:space="preserve">
<g>
	<path fill="#FFFFFF" d="M0.9,119.8c-2.3-4.3,0-7.3,4.5-8.5l3.9-1.1c3.8-0.9,6,0.8,8.5,3.9c3.8,4.7,10.2,7.7,17.5,7.7
		c9,0,15.8-5.3,15.8-12.4c0-6-5.1-9.2-11.7-11.5l-12.6-4.3C12.4,89.3,3.3,81.2,3.3,67.9c0-16.2,12.8-28.2,31.6-28.2
		c11.5,0,22.6,3.9,28.8,15.4c2.4,4.3,0.2,7.7-4.3,8.6l-3.6,0.8c-3.9,1.1-6.2-0.6-8.8-3.9c-3.2-3.8-7.3-4.9-11.5-4.9
		c-8.3,0-13.5,5.1-13.5,11.7c0,6,5.5,9.2,10.9,10.9l13.5,4.5c18,5.6,22.9,16.7,22.9,26.9c0,18-15.8,28.4-34.2,28.4
		C20.6,138,7.3,131.8,0.9,119.8z"/>
	<path fill="#FFFFFF" d="M86.8,129.2V6.8c0-4.3,2.6-6.8,7-6.8h5.6c4.3,0,6.8,2.4,6.8,6.8v53.4c4.1-13.2,16.2-20.5,31.4-20.5
		c20.9,0,36.1,13.5,36.1,43.1v46.4c0,4.3-2.6,6.8-7,6.8h-5.6c-4.3,0-6.8-2.4-6.8-6.8V82.9c0-19.4-8.8-26.3-18.8-26.3
		c-9.8,0-29.3,6.6-29.3,35.2v37.4c0,4.3-2.4,6.8-6.8,6.8h-5.6C89.4,135.9,86.8,133.5,86.8,129.2z"/>
	<path fill="#FFFFFF" d="M195.3,94.9V48.5c0-4.3,2.4-6.8,6.8-6.8h5.6c4.3,0,7,2.4,7,6.8v46.2c0,19.2,8.6,26.3,18.6,26.3
		c9.8,0,29.3-6.8,29.3-35.2V48.5c0-4.3,2.4-6.8,6.8-6.8h5.6c4.3,0,7,2.4,7,6.8v80.7c0,4.3-2.6,6.8-7,6.8h-5.6
		c-4.3,0-6.8-2.4-6.8-6.8v-11.7c-4.1,13.2-16.2,20.5-31.4,20.5C210.3,138,195.3,124.5,195.3,94.9z"/>
	<path fill="#FFFFFF" d="M306.4,129.2V48.5c0-4.3,2.6-6.8,7-6.8h5.6c4.3,0,6.8,2.4,6.8,6.8v11.7c4.1-13.2,16.2-20.5,31.4-20.5
		c20.9,0,36.1,13.5,36.1,43.1v46.4c0,4.3-2.6,6.8-7,6.8h-5.6c-4.3,0-6.8-2.4-6.8-6.8V82.9c0-19.4-8.8-26.3-18.8-26.3
		c-9.8,0-29.3,6.6-29.3,35.2v37.4c0,4.3-2.4,6.8-6.8,6.8h-5.6C309,135.9,306.4,133.5,306.4,129.2z"/>
	<g>
		<path fill="#FFFFFF" d="M426.4,119.8h-2.8c-0.6,0-0.9,0.3-0.9,0.9v4.6c0,0.6,0.3,0.9,0.9,0.9h2.8c0.6,0,0.9-0.3,0.9-0.9v-4.6
			C427.4,120.1,427.1,119.8,426.4,119.8z"/>
		<path fill="#FFFFFF" d="M420.5,104c-9.4,0-17,7.6-17,17s7.6,17,17,17s17-7.6,17-17S429.8,104,420.5,104z M415.3,129.1h-4v-8.6
			h-1.7v-3.1h5.8V129.1z M415.3,116h-4v-3.2h4V116z M431.4,125.6c0,1.2-0.3,2.1-1,2.7c-0.7,0.7-1.6,1-2.7,1h-5.3
			c-1.1,0-2.1-0.3-2.7-1c-0.7-0.7-1-1.6-1-2.7v-5.3c0-1.2,0.3-2.1,1-2.7c0.7-0.7,1.6-1,2.7-1h5.3c1.2,0,2.1,0.3,2.7,1
			c0.7,0.7,1,1.6,1,2.7V125.6z"/>
	</g>
</g>
<g>
</g>
<g>
</g>
<g>
</g>
<g>
</g>
<g>
</g>
<g>
</g>
</svg>
